…
### Exercise 8

Calculate the overall ROC AUC on the testing set.

```r
augment(final_fit, new_data = Pokémon_test, metric = 'roc_auc')
```

```
## # A tibble: 140 x 20
##    number name      type_1 type_2 total    hp attack defense sp_atk sp_def speed
##     <dbl> <chr>     <fct>  <chr>  <dbl> <dbl>  <dbl>   <dbl>  <dbl>  <dbl> <dbl>
##  1      3 Venusaur  Grass  Poison   525    80     82      83    100    100    80
##  2      3 Venusaur~ Grass  Poison   625    80    100     123    122    120    80
##  3      6 Charizar~ Fire   Dragon   634    78    130     111    130     85   100
##  4      9 Blastois~ Water  <NA>     630    79    103     120    135    115    78
##  5     15 Beedrill  Bug    Poison   395    65     90      40     45     80    75
##  6     15 Beedrill~ Bug    Poison   495    65    150      40     15     80   145
##  7     20 Raticate  Normal <NA>     413    55     81      60     50     70    97
##  8     38 Ninetales Fire   <NA>     505    73     76      75     81    100   100
##  9     40 Wigglytu~ Normal Fairy    435   140     70      45     85     50    45
## 10     45 Vileplume Grass  Poison   490    75     80      85    110     90    50
## # ... with 130 more rows, and 9 more variables: generation <fct>,
## #   legendary <fct>, .pred_class <fct>, .pred_Bug <dbl>, .pred_Fire <dbl>,
## #   .pred_Grass <dbl>, .pred_Normal <dbl>, .pred_Psychic <dbl>,
## #   .pred_Water <dbl>
```
…
In the 2020-2021 season, Stephen Curry, an NBA basketball player, made 337 out of 801 three point shot attempts (42.1%). Use bootstrap resampling on a sequence of 337 1’s (makes) and 464 0’s (misses). For each bootstrap sample, compute and save the sample mean (e.g. bootstrap FG% for the player). Use 1000 bootstrap samples to plot a histogram of those values. Compute the 99% bootstrap confidence interval for Stephen Curry’s “true” end-of-season
FG% using the quantile function in R. Print the endpoints of this interval.

```r
FG <- c(rep(0, 464), rep(1, 337))
FG <- data.frame(FG)

FG_boots <- bootstraps(FG, times = 1000)
FG_boots
```

```
## # Bootstrap sampling 
## # A tibble: 1,000 x 2
##    splits            id           
##    <list>            <chr>        
##  1 <split [801/285]> Bootstrap0001
##  2 <split [801/297]> Bootstrap0002
##  3 <split [801/293]> Bootstrap0003
##  4 <split [801/303]> Bootstrap0004
##  5 <split [801/315]> Bootstrap0005
##  6 <split [801/299]> Bootstrap0006
##  7 <split [801/298]> Bootstrap0007
##  8 <split [801/293]> Bootstrap0008
##  9 <split [801/294]> Bootstrap0009
## 10 <split [801/297]> Bootstrap0010
## # ... with 990 more rows
```
…
x = as.numeric(x)
boot_res
```

```
## # Bootstrap sampling 
## # A tibble: 1,000 x 3
##    splits            id            models          
##    <list>            <chr>         <list>          
##  1 <split [801/285]> Bootstrap0001 <tibble [1 x 5]>
##  2 <split [801/297]> Bootstrap0002 <tibble [1 x 5]>
##  3 <split [801/293]> Bootstrap0003 <tibble [1 x 5]>
##  4 <split [801/303]> Bootstrap0004 <tibble [1 x 5]>
##  5 <split [801/315]> Bootstrap0005 <tibble [1 x 5]>
##  6 <split [801/299]> Bootstrap0006 <tibble [1 x 5]>
##  7 <split [801/298]> Bootstrap0007 <tibble [1 x 5]>
##  8 <split [801/293]> Bootstrap0008 <tibble [1 x 5]>
##  9 <split [801/294]> Bootstrap0009 <tibble [1 x 5]>
## 10 <split [801/297]> Bootstrap0010 <tibble [1 x 5]>
## # ... with 990 more rows
```
…
